ULMS744
…
The rule of thumb: do the heavy lifting before the app, and ship only what the chart needs.

Compute the summary and save it into app/shot_zones.rds.

R code

shot_zones <- lakers_shots |>
  count(player_name, era, shot_zone_basic) |>
  group_by(player_name, era) |>
  mutate(share = n / sum(n)) |>
  ungroup()

shot_zones

# A tibble: 57 × 5
   player_name   era      shot_zone_basic           n  share
   <chr>         <fct>    <fct>                 <int>  <dbl>
 1 Austin Reaves AD Era   Restricted Area         426 0.215 
 2 Austin Reaves AD Era   In The Paint (Non-RA)   437 0.220 
 3 Austin Reaves AD Era   Mid-Range               205 0.103 
 4 Austin Reaves AD Era   Left Corner 3            87 0.0439
 5 Austin Reaves AD Era   Right Corner 3           72 0.0363
 6 Austin Reaves AD Era   Above the Break 3       755 0.381 
 7 Austin Reaves Luka Era Restricted Area         279 0.226 
 8 Austin Reaves Luka Era In The Paint (Non-RA)   311 0.252 
 9 Austin Reaves Luka Era Mid-Range                76 0.0615
10 Austin Reaves Luka Era Left Corner 3            43 0.0348
# ℹ 47 more rows
…
