ULMS744
…
rui_family <- lakers_shots |>
  filter(player_name == "Rui Hachimura") |>
  mutate(action_family = action_family_of(action_type)) |>
  group_by(era, action_family, action_type) |>
  summarise(attempts = n(),
            efg      = sum(shot_made_flag * shot_value) / (2 * n()),
            .groups  = "drop") |>
  group_by(era) |>
  mutate(proportion = attempts / sum(attempts)) |>
  ungroup()

rui_family

# A tibble: 78 × 6
   era    action_family action_type                 attempts   efg proportion
   <fct>  <chr>         <chr>                          <int> <dbl>      <dbl>
 1 AD Era Dunk          Alley Oop Dunk Shot                5 1       0.00383 
 2 AD Era Dunk          Cutting Dunk Shot                 48 0.938   0.0368  
 3 AD Era Dunk          Driving Dunk Shot                 25 0.76    0.0191  
 4 AD Era Dunk          Driving Reverse Dunk Shot          2 0.5     0.00153 
 5 AD Era Dunk          Dunk Shot                         21 0.857   0.0161  
 6 AD Era Dunk          Putback Dunk Shot                  5 1       0.00383 
 7 AD Era Dunk          Reverse Dunk Shot                  6 1       0.00459 
 8 AD Era Dunk          Running Alley Oop Dunk Shot        4 1       0.00306 
 9 AD Era Dunk          Running Dunk Shot                 47 0.894   0.0360  
10 AD Era Dunk          Running Reverse Dunk Shot          1 0       0.000766
# ℹ 68 more rows
…
